696761 377927
335782 903256
898323 339832
208848 852005
675633 542388
769979 550732
645534 319669
343796 21368
83554 879798
878942 700937
949876 749401
59282 855892
957614 935200
706522 61476
648029 655425
99860 435768
254505 680565
269159 445728
307938 98799
997278 441427
810147 213904
63722 381055
944694 792550
975445 808092
981273 735934
504351 584805
803089 153530
87980 127912
368546 396598
487633 745552
465806 311453
934271 279731
50634 187657
914267 275272
356193 476274
598315 766909
780619 812924
806269 495893
111981 15805
985027 137446
290190 953790
136612 803406
585818 878165
311678 681460
26748 298848
558069 623883
987571 720672
999173 795882
266293 364882
107731 784533
830204 107668
95398 109511
923273 329799
83430 159390
622128 3857
15564 462141
126632 400082
330683 700454
50959 166345
330822 584121
423927 984239
815901 184858
205363 193267
788975 565360
500376 736948
244361 826497
322231 962984
522367 368622
697801 623037
237356 289751
626892 97079
675450 176449
693826 231895
920296 784357
406249 661298
300668 649763
494884 34400
1515 838402
134293 425617
572677 72640
263513 655141
949578 211419
336861 576764
501245 103071
743834 127167
264373 3699
365532 724144
589395 284421
483715 103796
402437 868395
565155 712350
565207 684389
779901 203292
767092 995463
418592 488442
448616 907826
438722 284939
830107 621499
490892 918704
55711 900744
323914 710568
243330 969489
556313 582875
565213 692729
15694 567802
30424 564945
991292 494413
307401 76767
979330 693787
643515 933992
162767 558530
217927 527993
71141 453353
967667 539830
273031 724502
924833 250416
618630 233296
603294 553617
622969 852513
613532 171662
271688 340309
277355 258853
570888 507122
764399 66633
979333 640586
532071 624546
86304 62965
172933 903111
885575 993147
979557 77096
545609 569687
144803 546205
418229 310830
589481 619722
669252 619079
605470 444351
529459 890858
718348 340179
843102 750679
805324 169582
562892 793252
550169 279928
43960 451108
262378 722543
376983 192976
824306 101713
623500 131498
822868 494555
729597 861293
781647 98123
360063 372328
594937 528388
365103 804126
214260 622782
747122 711212
206836 80519
697818 879101
944108 733202
66184 849022
223648 98201
428361 453546
793925 707581
538350 349826
940977 272231
323862 106255
339893 593614
979825 176050
891821 533439
956040 195404
398112 302396
146942 511811
197946 910640
240651 207242
361806 594046
954086 799876
515252 749973
741268 858942
478306 428813
555601 407957
250332 951372
950730 897560
522714 574020
800702 315655
451094 4939
857944 312987
870980 178889
136199 953303
25748 970981
205227 895670
928778 379686
31364 174918
533533 469432
922073 36290
879797 852984
308734 737685
563781 6730
792563 842907
920537 534078
87370 978039
684438 298120
196836 774891
857069 247323
108292 147590
694581 605836
604220 838518
270346 238474
455044 101235
724857 225286
674192 140977
702227 315591
172195 631346
801728 442892
736115 814537
865736 37413
444464 142795
860322 328324
888763 926629
402983 329773
513314 989776
720199 987518
242338 181304
553658 935575
864283 277686
258465 736657
306964 691024
287490 565554
898081 8268
706513 959495
870919 402069
105724 300840
305590 454927
743798 7319
697264 862243
604939 843003
251332 240231
804124 257943
877581 769263
927438 27912
870485 969247
486528 832730
259935 375959
581472 930529
207770 688498
351403 461608
895363 407897
781502 502603
965788 181272
858600 995226
568952 973529
353453 456823
