443072 323609
526315 629162
61011 124781
928469 732275
351028 37519
385554 888824
935734 605714
563654 13352
293224 519701
687841 17119
844813 415445
263541 942216
336090 169079
637484 477423
271587 963013
349619 439238
954373 81709
722502 875051
102397 784633
401710 484415
698459 837140
922743 364457
730286 748999
164647 868551
259361 867651
983119 385612
57392 700248
316082 677081
307613 473898
757380 717531
110669 472331
193628 763045
468129 702210
294221 448247
343227 221598
781267 26659
928249 235257
411780 262338
517611 332311
447912 836470
553777 19177
406000 232900
458575 576936
212204 586261
289162 902679
776373 679651
378989 965983
148399 665718
147225 24512
444059 126975
127061 714704
100523 687755
694783 942258
603224 160981
862140 379782
733812 704818
8360 549973
278734 822801
990233 854737
658755 548609
887751 121913
709388 845345
34384 581717
157064 700040
447132 995330
403112 620557
704693 265441
280416 808606
365898 805271
415195 324298
533281 679402
770655 85102
51515 308067
765288 206932
854276 4835
457751 33853
808932 74820
657340 84760
371734 924127
189851 687481
534399 46796
269243 882991
84956 595768
861467 986782
196579 313522
92626 40311
489430 971062
819763 761286
528893 260276
811525 457565
3644 982018
504727 544064
208046 57837
653888 445217
21220 991021
423507 126842
319940 144862
292883 314143
754260 62706
601888 927042
284549 331513
847904 676771
323444 34397
973443 272074
385812 482273
529535 591528
996744 659838
861629 356687
403255 966447
191063 825186
634636 938145
63585 305357
728596 532666
75653 760410
160532 378983
870138 891281
469002 190933
494518 25301
865924 2938
629862 154953
768714 715411
271136 654097
789420 337127
929577 45807
170716 881823
742580 774470
320281 242681
335178 499695
457151 33779
368002 836199
371423 157424
646572 918633
250270 666546
60146 756170
56274 570124
172590 478048
502994 300407
982390 71129
510254 893072
268197 204556
740205 119855
309072 258704
636102 180484
613419 140442
915432 189482
335169 437095
11164 86553
412379 945263
88410 268296
346893 873226
868200 822560
343342 994274
984734 18887
505520 807041
366720 235377
629090 878112
410998 148255
806102 916674
737060 567286
925901 79340
551338 865642
15953 11152
659688 912013
645077 869917
460731 108584
493396 734277
289645 332703
899525 123673
149209 319810
367515 443557
880840 152924
794541 31551
403931 308888
31829 505586
222031 663324
770459 896858
849875 674243
367345 529880
642464 642972
84930 95068
124809 662686
287010 216068
664539 573607
802896 634301
250405 50157
619464 97483
934186 485232
330063 915561
215097 550233
762141 778932
430328 707310
904904 413084
784276 621888
137133 304492
4846 104615
906706 329323
653587 346652
428613 151576
649792 449776
150731 648552
186261 769254
330865 704830
353843 380531
557038 325706
765336 990649
921940 436402
744525 48009
888964 553750
787196 466735
455435 908725
197431 959366
855920 439424
251676 721968
702731 579250
618742 306425
577457 782292
711503 504031
351551 243772
343906 615820
5121 740551
377129 700843
408232 948375
623429 776512
27185 594606
854689 773938
237634 70014
194623 715952
885164 951112
15908 306952
641610 511867
427363 660381
303370 315176
708593 997646
849110 946912
445396 652858
392956 601818
200958 890400
807155 874027
952386 591174
76542 248756
387425 924835
129783 66905
380468 783208
595434 131096
541268 871859
421919 52288
540041 679597
746162 965917
358488 36101
209994 997397
189984 875548
931526 68614
186893 4310
10160 655310
830709 318782
630534 731275
827076 306036
44454 860629
314431 781504
383107 854448
422385 590735
632994 80957
833457 238811
448740 966046
854942 990660
334837 656612
560060 311324
368647 63915
397889 733290
125123 176455
718594 267908
938298 66005
918712 727280
904365 881619
182415 495175
907504 936316
908091 896426
692272 790306
186052 956044
248974 508617
882306 451097
716578 58573
802742 54424
963781 521872
540636 123369
665649 509510
801787 759480
260644 227954
732937 972667
170872 676401
558937 302187
136643 555765
617695 822856
877240 230171
749771 529648
265707 545185
522564 724967
639544 204066
462676 181402
732515 695727
