114328 800356
730801 646169
313192 125377
344277 58150
384133 646400
534521 83066
348279 236553
201823 769164
282918 730689
399695 88600
611822 753324
406341 608331
198861 247846
87772 40051
608111 660378
668337 782950
847165 202629
258469 23579
57842 803450
156353 660725
82090 754431
72157 94833
694646 851554
372066 188556
33989 684569
523099 236634
371735 394097
764010 970833
701940 693223
823902 59115
629403 577786
735095 819897
461368 696632
491548 794813
271209 329990
935771 526570
267206 586819
406901 293530
874999 703443
88835 888396
680778 901224
989496 799926
262267 647047
33024 779979
451866 474698
511783 40894
177229 163245
574316 331393
178470 830703
945737 354722
858482 27215
37098 754994
804138 19680
501245 578063
370217 915749
222318 930878
234731 549325
372826 677219
968868 391870
820842 502576
24865 32328
997626 190428
887228 365764
145440 61337
257112 746087
931188 479698
172633 928271
40478 591718
298787 455216
643328 170418
597885 850737
964492 336978
604526 701168
325229 369555
82844 667833
804225 325836
636420 53608
574493 701664
292643 835093
315436 347622
601128 233414
133018 505776
426159 552003
627390 766025
348165 253743
238921 478663
177447 270406
53235 393579
274490 218413
142087 601003
489012 573332
763724 528062
640108 227286
513536 87227
349680 527591
902335 207527
600297 432369
72763 334388
785558 972981
422347 251255
773385 341608
898522 979707
654347 899620
508279 231798
771671 353454
596114 111517
884211 532335
66589 778876
715337 8703
346259 689412
773144 720551
290362 373304
124685 407889
640137 790552
715330 980448
303929 569986
873326 120955
560952 258533
120134 12867
624206 317572
45887 121303
587015 785521
778366 525966
111529 435240
14232 609550
803735 472218
588003 723802
408072 507367
993901 597874
29375 571104
286929 246424
909473 637025
40965 510453
404560 290661
15637 855475
72235 430024
256863 121534
124619 4797
40533 15860
324786 18590
104977 520135
851395 763101
24046 89518
388095 186921
623522 761700
690747 915506
492513 73291
344858 490262
417420 30082
446706 104023
545753 886636
671498 676165
548678 63188
532762 645918
350903 344521
529675 651850
897194 139927
314102 298090
321689 187360
975029 156088
578416 386810
579809 114100
463325 832301
475821 467893
790546 932333
473078 988821
166560 784701
302213 88335
840384 813844
487741 343698
227808 97439
745262 876774
28719 257974
213486 712832
250419 360459
724303 539607
767158 370050
923352 419432
676079 780408
139659 210523
732650 30829
131544 369036
610897 646603
122795 423993
267118 109598
903039 782017
791220 633215
442508 899255
523416 48983
182903 636496
225573 928018
988897 641837
152035 307189
274558 577761
793219 51574
694912 279525
992705 511829
564890 663854
43998 405400
966527 82335
453881 770021
853324 162193
655724 813838
618397 573453
257239 201798
158347 965806
483050 16893
184191 467837
658389 466262
37571 499229
618172 787219
14398 655508
854218 362180
978412 632359
949071 318853
156072 428349
797514 146121
78260 986278
635338 306632
837553 349861
858363 563148
925039 865336
107435 603727
232183 565628
71554 62100
705579 68811
961682 695414
781699 51300
754668 831133
530631 457729
130236 219087
723194 608378
338744 713039
167258 220043
239503 69838
2671 202027
495465 186471
234406 452942
22439 559694
937980 372811
456211 506647
162607 63986
775813 596988
482833 521873
75266 98465
61455 997364
201040 407947
586379 131786
467422 509467
718865 668235
891830 522576
12827 16673
22737 485455
242980 105693
765215 722418
717292 211094
118643 861074
917170 319304
273876 228599
142005 207251
43737 960236
